Access precomputed LD · Sina Rüeger
…
We can calculate the LD matrix of a full region, max 1 Mb wide. Because of my poor computer, we limit it to +/- 100 kb.

## 
## example: ext <- "/ld/human/region/6:25837556..25843455/1000GENOMES:phase_3:KHV?"
## Query region. A maximum of 1Mb is allowed.

ext <- glue::glue("/ld/human/region/{sel.chr}:{sel.pos - range/10}..{sel.pos + range/10}/1000GENOMES:phase_3:EUR?")

r <- GET(paste(server, ext, sep = ""), content_type("application/json"))
stop_for_status(r)
LD.matrix <- as_tibble(fromJSON(toJSON(content(r)))) %>% unnest()
LD.matrix

## # A tibble: 31,874 x 5
##    variation2  r2       variation1  d_prime  population_name        
##    <chr>       <chr>    <chr>       <chr>    <chr>                  
##  1 rs530568312 0.995908 rs7190396   1.000000 1000GENOMES:phase_3:EUR
##  2 rs11646715  0.210147 rs67019605  0.508388 1000GENOMES:phase_3:EUR
##  3 rs576360210 0.075850 rs1075440   0.510602 1000GENOMES:phase_3:EUR
##  4 rs62048378  0.541160 rs11861870  0.999992 1000GENOMES:phase_3:EUR
##  5 rs2042032   0.067882 rs74498370  0.502037 1000GENOMES:phase_3:EUR
##  6 rs114078316 1.000000 rs200847717 1.000000 1000GENOMES:phase_3:EUR
##  7 rs56108343  0.164164 rs3751814   0.999968 1000GENOMES:phase_3:EUR
##  8 rs12448529  0.073074 rs111832229 0.999848 1000GENOMES:phase_3:EUR
##  9 rs77178696  0.132869 rs72622243  0.956391 1000GENOMES:phase_3:EUR
## 10 rs76442450  0.055009 rs9939973   0.999955 1000GENOMES:phase_3:EUR
## # ... with 31,864 more rows
…
