…
Extract ALL gene names in the region

listAttributes(ensembl) %>% slice(str_which(description, "Gene")) 

## # A tibble: 150 x 3
##    name                       description                   page        
##    <chr>                      <chr>                         <chr>       
##  1 ensembl_gene_id            Gene stable ID                feature_page
##  2 ensembl_gene_id_version    Gene stable ID version        feature_page
##  3 description                Gene description              feature_page
##  4 start_position             Gene start (bp)               feature_page
##  5 end_position               Gene end (bp)                 feature_page
##  6 external_gene_name         Gene name                     feature_page
##  7 percentage_gene_gc_content Gene % GC content             feature_page
##  8 gene_biotype               Gene type                     feature_page
##  9 entrezgene_trans_name      EntrezGene transcript name ID feature_page
## 10 genedb                     GeneDB ID                     feature_page
## # ... with 140 more rows

listFilters(ensembl)%>% slice(str_which(description, "Gene")) 

## # A tibble: 118 x 2
##    name                       description                                 
##    <chr>                      <chr>                                       
##  1 with_entrezgene_trans_name With EntrezGene transcript name ID(s)       
##  2 with_genedb                With GeneDB ID(s)                           
##  3 with_uniprot_gn            With UniProtKB Gene Name ID(s)              
##  4 with_wikigene              With WikiGene ID(s)                         
##  5 ensembl_gene_id            Gene stable ID(s) [e.g. ENSG00000000003]    
##  6 ensembl_gene_id_version    Gene stable ID(s) with version [e.g. ENSG00…
##  7 external_gene_name         Gene Name(s) [e.g. RF00100]                 
##  8 entrezgene_trans_name      EntrezGene transcript name ID(s) [e.g. ALDO…
##  9 genedb                     GeneDB ID(s) [e.g. Smp_009580.1:pep]        
## 10 uniprot_gn                 UniProtKB Gene Name ID(s) [e.g. A0A023T6R1] 
## # ... with 108 more rows
…
