Access precomputed correlations · Sina Rüeger
…
We can calculate the LD matrix of a full region, max 1 Mb wide. Because of computation, we limit it to +/- 100 kb.

## 
## example: ext <- "/ld/human/region/6:25837556..25843455/1000GENOMES:phase_3:KHV?"
## Query region. A maximum of 1Mb is allowed.

ext <- glue::glue("/ld/human/region/{sel.chr}:{sel.pos - range/10}..{sel.pos + range/10}/1000GENOMES:phase_3:EUR?")

r <- GET(paste(server, ext, sep = ""), content_type("application/json"))
stop_for_status(r)
LD.matrix <- as_tibble(fromJSON(toJSON(content(r)))) %>% unnest()
LD.matrix

## # A tibble: 31,874 x 5
##    variation1 population_name         variation2 r2       d_prime 
##    <chr>      <chr>                   <chr>      <chr>    <chr>   
##  1 rs8058930  1000GENOMES:phase_3:EUR rs62033437 0.078515 0.959980
##  2 rs9931164  1000GENOMES:phase_3:EUR rs74018596 0.606811 1.000000
##  3 rs10852521 1000GENOMES:phase_3:EUR rs56094641 0.650360 0.994565
##  4 rs9937429  1000GENOMES:phase_3:EUR rs11075995 0.994171 1.000000
##  5 rs17817288 1000GENOMES:phase_3:EUR rs9926289  0.630724 0.999999
##  6 rs62048375 1000GENOMES:phase_3:EUR rs73609995 0.960282 1.000000
##  7 rs12596393 1000GENOMES:phase_3:EUR rs17818902 0.365967 0.999975
##  8 rs73607075 1000GENOMES:phase_3:EUR rs7188250  0.050316 0.999928
##  9 rs28562191 1000GENOMES:phase_3:EUR rs4783819  0.428655 0.999996
## 10 rs72805632 1000GENOMES:phase_3:EUR rs16952581 0.143193 0.999972
## # ... with 31,864 more rows
…
