Locuszoom plot of GWAS summary statistics · Sina Rüeger
…
So now we know that rs1421085 is part of FTO. But where does FTO start and end? And what are the genes nearby? For this purpose, we want to visualise the summary statistics of the full genomic region (\(\pm 250e3\)).

listAttributes(ensembl) %>% slice(str_which(description, "Gene type")) 

## # A tibble: 3 x 3
##   name         description page        
##   <chr>        <chr>       <chr>       
## 1 gene_biotype Gene type   feature_page
## 2 gene_biotype Gene type   structure   
## 3 gene_biotype Gene type   sequences

listFilters(ensembl)%>% slice(str_which(description, "Gene")) 

## # A tibble: 121 x 2
##    name                       description                                 
##    <chr>                      <chr>                                       
##  1 with_entrezgene_trans_name With EntrezGene transcript name ID(s)       
##  2 with_genedb                With GeneDB ID(s)                           
##  3 with_uniprot_gn            With UniProtKB Gene Name ID(s)              
##  4 with_wikigene              With WikiGene ID(s)                         
##  5 ensembl_gene_id            Gene stable ID(s) [e.g. ENSG00000000003]    
##  6 ensembl_gene_id_version    Gene stable ID(s) with version [e.g. ENSG00…
##  7 external_gene_name         Gene Name(s) [e.g. RF00100]                 
##  8 entrezgene_trans_name      EntrezGene transcript name ID(s) [e.g. C2or…
##  9 genedb                     GeneDB ID(s) [e.g. Smp_009580.1:pep]        
## 10 uniprot_gn                 UniProtKB Gene Name ID(s) [e.g. A0A023T6R1] 
## # ... with 111 more rows
…
